\relax 
\citation{bib:gsl}
\bibcite{bib:gsl}{1}
\@writefile{lof}{\contentsline {figure}{\numberline {1}{\ignorespaces Plot of Bessel function of the first kind, $J_n(x)$, for $n$ = 0, 1, 2, using both \texttt  {mybessel\_integ(n,x)} and the function \texttt  {jn(n,x)} from \texttt  {\textless math.h\textgreater }. }}{2}}
\newlabel{fig:main}{{1}{2}}
