\relax 
\citation{bib:main}
\@writefile{toc}{\contentsline {section}{\numberline {1}Introduction}{1}}
\newlabel{eq:main}{{1}{1}}
\newlabel{eq:secular}{{4}{2}}
\@writefile{toc}{\contentsline {section}{\numberline {2}Method}{2}}
\@writefile{lof}{\contentsline {figure}{\numberline {1}{\ignorespaces Visualization of the secular equation in eq. (4\hbox {}) for a matrix of size $n =4$, $p=1$, $d_0 = -2, d_1 = -1, d_2 = 0, d_3 = 1$, and $u_0 = 2.72, u_1 = 0, u_2 = -0.845, u_3 = 2.26$.}}{3}}
\newlabel{fig:secular}{{1}{3}}
\@writefile{toc}{\contentsline {section}{\numberline {3}Performance}{4}}
\@writefile{lof}{\contentsline {figure}{\numberline {2}{\ignorespaces Execution time as a function of the matrix size for both the function \texttt  {symmetric\_rc\_update} (purple) and \texttt  {jacobi\_cyclic} (green). To guide the eye an $n^2$ (blue) and an $n^3$ (yellow) function are plotted as well.}}{4}}
\newlabel{fig:scale}{{2}{4}}
\bibcite{bib:main}{1}
\@writefile{toc}{\contentsline {section}{\numberline {4}Discussion}{5}}
